{
  "images" : [
    {
      "idiom" : "universal",
      "scale" : "1x",
      "filename" : "ic_volume_muted_default_light_24dp.png"
    },
    {
      "idiom" : "universal",
      "scale" : "2x",
      "filename" : "ic_volume_muted_default_light_24dp-1.png"
    },
    {
      "idiom" : "universal",
      "scale" : "3x",
      "filename" : "ic_volume_muted_default_light_24dp-2.png"
    }
  ],
  "info" : {
    "version" : 1,
    "author" : "xcode"
  }
}